2018-07-22 20:10:45,460 - Log4JLogChute initialized using file 'velocity.log'
2018-07-22 20:10:45,462 - Starting Apache Velocity v1.6.2 (compiled: 2009-02-19 16:29:46)
2018-07-22 20:10:45,462 - Default Properties File: org/apache/velocity/runtime/defaults/velocity.properties
2018-07-22 20:10:45,462 - Trying to use logger class org.apache.velocity.runtime.log.AvalonLogChute
2018-07-22 20:10:45,462 - Target log system for org.apache.velocity.runtime.log.AvalonLogChute is not available (java.lang.NoClassDefFoundError: org/apache/log/format/Formatter).  Falling back to next log system...
2018-07-22 20:10:45,462 - Trying to use logger class org.apache.velocity.runtime.log.Log4JLogChute
2018-07-22 20:10:45,462 - Using logger class org.apache.velocity.runtime.log.Log4JLogChute
2018-07-22 20:10:45,484 - ResourceLoader instantiated: org.apache.velocity.runtime.resource.loader.FileResourceLoader
2018-07-22 20:10:45,485 - Do unicode file recognition:  false
2018-07-22 20:10:45,485 - FileResourceLoader : adding path '.'
2018-07-22 20:10:45,529 - ResourceCache: initialized (class org.apache.velocity.runtime.resource.ResourceCacheImpl) with class java.util.Collections$SynchronizedMap cache map.
2018-07-22 20:10:45,530 - Loaded System Directive: org.apache.velocity.runtime.directive.Define
2018-07-22 20:10:45,530 - Loaded System Directive: org.apache.velocity.runtime.directive.Break
2018-07-22 20:10:45,531 - Loaded System Directive: org.apache.velocity.runtime.directive.Evaluate
2018-07-22 20:10:45,531 - Loaded System Directive: org.apache.velocity.runtime.directive.Literal
2018-07-22 20:10:45,531 - Loaded System Directive: org.apache.velocity.runtime.directive.Macro
2018-07-22 20:10:45,532 - Loaded System Directive: org.apache.velocity.runtime.directive.Parse
2018-07-22 20:10:45,532 - Loaded System Directive: org.apache.velocity.runtime.directive.Include
2018-07-22 20:10:45,533 - Loaded System Directive: org.apache.velocity.runtime.directive.Foreach
2018-07-22 20:10:45,551 - Created '20' parsers.
2018-07-22 20:10:45,553 - Velocimacro : "velocimacro.library" is not set.  Trying default library: VM_global_library.vm
2018-07-22 20:10:45,554 - Velocimacro : Default library not found.
2018-07-22 20:10:45,554 - Velocimacro : allowInline = true : VMs can be defined inline in templates
2018-07-22 20:10:45,554 - Velocimacro : allowInlineToOverride = false : VMs defined inline may NOT replace previous VM definitions
2018-07-22 20:10:45,554 - Velocimacro : allowInlineLocal = false : VMs defined inline will be global in scope if allowed.
2018-07-22 20:10:45,554 - Velocimacro : autoload off : VM system will not automatically reload global library macros
2018-07-22 20:22:57,902 - Log4JLogChute initialized using file 'velocity.log'
2018-07-22 20:22:57,913 - Starting Apache Velocity v1.6.2 (compiled: 2009-02-19 16:29:46)
2018-07-22 20:22:57,913 - Default Properties File: org/apache/velocity/runtime/defaults/velocity.properties
2018-07-22 20:22:57,913 - Trying to use logger class org.apache.velocity.runtime.log.AvalonLogChute
2018-07-22 20:22:57,913 - Target log system for org.apache.velocity.runtime.log.AvalonLogChute is not available (java.lang.NoClassDefFoundError: org/apache/log/format/Formatter).  Falling back to next log system...
2018-07-22 20:22:57,913 - Trying to use logger class org.apache.velocity.runtime.log.Log4JLogChute
2018-07-22 20:22:57,913 - Using logger class org.apache.velocity.runtime.log.Log4JLogChute
2018-07-22 20:22:57,916 - ResourceLoader instantiated: org.apache.velocity.runtime.resource.loader.FileResourceLoader
2018-07-22 20:22:57,917 - Do unicode file recognition:  false
2018-07-22 20:22:57,917 - FileResourceLoader : adding path '.'
2018-07-22 20:22:58,057 - ResourceCache: initialized (class org.apache.velocity.runtime.resource.ResourceCacheImpl) with class java.util.Collections$SynchronizedMap cache map.
2018-07-22 20:22:58,058 - Loaded System Directive: org.apache.velocity.runtime.directive.Define
2018-07-22 20:22:58,058 - Loaded System Directive: org.apache.velocity.runtime.directive.Break
2018-07-22 20:22:58,059 - Loaded System Directive: org.apache.velocity.runtime.directive.Evaluate
2018-07-22 20:22:58,059 - Loaded System Directive: org.apache.velocity.runtime.directive.Literal
2018-07-22 20:22:58,059 - Loaded System Directive: org.apache.velocity.runtime.directive.Macro
2018-07-22 20:22:58,060 - Loaded System Directive: org.apache.velocity.runtime.directive.Parse
2018-07-22 20:22:58,060 - Loaded System Directive: org.apache.velocity.runtime.directive.Include
2018-07-22 20:22:58,061 - Loaded System Directive: org.apache.velocity.runtime.directive.Foreach
2018-07-22 20:22:58,082 - Created '20' parsers.
2018-07-22 20:22:58,084 - Velocimacro : "velocimacro.library" is not set.  Trying default library: VM_global_library.vm
2018-07-22 20:22:58,085 - Velocimacro : Default library not found.
2018-07-22 20:22:58,085 - Velocimacro : allowInline = true : VMs can be defined inline in templates
2018-07-22 20:22:58,085 - Velocimacro : allowInlineToOverride = false : VMs defined inline may NOT replace previous VM definitions
2018-07-22 20:22:58,085 - Velocimacro : allowInlineLocal = false : VMs defined inline will be global in scope if allowed.
2018-07-22 20:22:58,085 - Velocimacro : autoload off : VM system will not automatically reload global library macros
2018-07-22 20:24:07,045 - Log4JLogChute initialized using file 'velocity.log'
2018-07-22 20:24:07,046 - Starting Apache Velocity v1.6.2 (compiled: 2009-02-19 16:29:46)
2018-07-22 20:24:07,046 - Default Properties File: org/apache/velocity/runtime/defaults/velocity.properties
2018-07-22 20:24:07,046 - Trying to use logger class org.apache.velocity.runtime.log.AvalonLogChute
2018-07-22 20:24:07,046 - Target log system for org.apache.velocity.runtime.log.AvalonLogChute is not available (java.lang.NoClassDefFoundError: org/apache/log/format/Formatter).  Falling back to next log system...
2018-07-22 20:24:07,046 - Trying to use logger class org.apache.velocity.runtime.log.Log4JLogChute
2018-07-22 20:24:07,046 - Using logger class org.apache.velocity.runtime.log.Log4JLogChute
2018-07-22 20:24:07,048 - ResourceLoader instantiated: org.apache.velocity.runtime.resource.loader.FileResourceLoader
2018-07-22 20:24:07,049 - Do unicode file recognition:  false
2018-07-22 20:24:07,049 - FileResourceLoader : adding path '.'
2018-07-22 20:24:07,054 - ResourceCache: initialized (class org.apache.velocity.runtime.resource.ResourceCacheImpl) with class java.util.Collections$SynchronizedMap cache map.
2018-07-22 20:24:07,055 - Loaded System Directive: org.apache.velocity.runtime.directive.Define
2018-07-22 20:24:07,056 - Loaded System Directive: org.apache.velocity.runtime.directive.Break
2018-07-22 20:24:07,056 - Loaded System Directive: org.apache.velocity.runtime.directive.Evaluate
2018-07-22 20:24:07,056 - Loaded System Directive: org.apache.velocity.runtime.directive.Literal
2018-07-22 20:24:07,057 - Loaded System Directive: org.apache.velocity.runtime.directive.Macro
2018-07-22 20:24:07,057 - Loaded System Directive: org.apache.velocity.runtime.directive.Parse
2018-07-22 20:24:07,058 - Loaded System Directive: org.apache.velocity.runtime.directive.Include
2018-07-22 20:24:07,058 - Loaded System Directive: org.apache.velocity.runtime.directive.Foreach
2018-07-22 20:24:07,074 - Created '20' parsers.
2018-07-22 20:24:07,077 - Velocimacro : "velocimacro.library" is not set.  Trying default library: VM_global_library.vm
2018-07-22 20:24:07,077 - Velocimacro : Default library not found.
2018-07-22 20:24:07,077 - Velocimacro : allowInline = true : VMs can be defined inline in templates
2018-07-22 20:24:07,077 - Velocimacro : allowInlineToOverride = false : VMs defined inline may NOT replace previous VM definitions
2018-07-22 20:24:07,077 - Velocimacro : allowInlineLocal = false : VMs defined inline will be global in scope if allowed.
2018-07-22 20:24:07,077 - Velocimacro : autoload off : VM system will not automatically reload global library macros
2018-07-22 20:32:44,299 - Log4JLogChute initialized using file 'velocity.log'
2018-07-22 20:32:44,299 - Starting Apache Velocity v1.6.2 (compiled: 2009-02-19 16:29:46)
2018-07-22 20:32:44,299 - Default Properties File: org/apache/velocity/runtime/defaults/velocity.properties
2018-07-22 20:32:44,299 - Trying to use logger class org.apache.velocity.runtime.log.AvalonLogChute
2018-07-22 20:32:44,299 - Target log system for org.apache.velocity.runtime.log.AvalonLogChute is not available (java.lang.NoClassDefFoundError: org/apache/log/format/Formatter).  Falling back to next log system...
2018-07-22 20:32:44,299 - Trying to use logger class org.apache.velocity.runtime.log.Log4JLogChute
2018-07-22 20:32:44,299 - Using logger class org.apache.velocity.runtime.log.Log4JLogChute
2018-07-22 20:32:44,302 - ResourceLoader instantiated: org.apache.velocity.runtime.resource.loader.FileResourceLoader
2018-07-22 20:32:44,302 - Do unicode file recognition:  false
2018-07-22 20:32:44,302 - FileResourceLoader : adding path '.'
2018-07-22 20:32:44,308 - ResourceCache: initialized (class org.apache.velocity.runtime.resource.ResourceCacheImpl) with class java.util.Collections$SynchronizedMap cache map.
2018-07-22 20:32:44,308 - Loaded System Directive: org.apache.velocity.runtime.directive.Define
2018-07-22 20:32:44,309 - Loaded System Directive: org.apache.velocity.runtime.directive.Break
2018-07-22 20:32:44,309 - Loaded System Directive: org.apache.velocity.runtime.directive.Evaluate
2018-07-22 20:32:44,309 - Loaded System Directive: org.apache.velocity.runtime.directive.Literal
2018-07-22 20:32:44,310 - Loaded System Directive: org.apache.velocity.runtime.directive.Macro
2018-07-22 20:32:44,310 - Loaded System Directive: org.apache.velocity.runtime.directive.Parse
2018-07-22 20:32:44,311 - Loaded System Directive: org.apache.velocity.runtime.directive.Include
2018-07-22 20:32:44,311 - Loaded System Directive: org.apache.velocity.runtime.directive.Foreach
2018-07-22 20:32:44,335 - Created '20' parsers.
2018-07-22 20:32:44,341 - Velocimacro : "velocimacro.library" is not set.  Trying default library: VM_global_library.vm
2018-07-22 20:32:44,341 - Velocimacro : Default library not found.
2018-07-22 20:32:44,341 - Velocimacro : allowInline = true : VMs can be defined inline in templates
2018-07-22 20:32:44,341 - Velocimacro : allowInlineToOverride = false : VMs defined inline may NOT replace previous VM definitions
2018-07-22 20:32:44,341 - Velocimacro : allowInlineLocal = false : VMs defined inline will be global in scope if allowed.
2018-07-22 20:32:44,341 - Velocimacro : autoload off : VM system will not automatically reload global library macros
2018-07-22 21:14:41,514 - Log4JLogChute initialized using file 'velocity.log'
2018-07-22 21:14:41,530 - Starting Apache Velocity v1.6.2 (compiled: 2009-02-19 16:29:46)
2018-07-22 21:14:41,530 - Default Properties File: org/apache/velocity/runtime/defaults/velocity.properties
2018-07-22 21:14:41,530 - Trying to use logger class org.apache.velocity.runtime.log.AvalonLogChute
2018-07-22 21:14:41,530 - Target log system for org.apache.velocity.runtime.log.AvalonLogChute is not available (java.lang.NoClassDefFoundError: org/apache/log/format/Formatter).  Falling back to next log system...
2018-07-22 21:14:41,530 - Trying to use logger class org.apache.velocity.runtime.log.Log4JLogChute
2018-07-22 21:14:41,530 - Using logger class org.apache.velocity.runtime.log.Log4JLogChute
2018-07-22 21:14:41,533 - ResourceLoader instantiated: org.apache.velocity.runtime.resource.loader.FileResourceLoader
2018-07-22 21:14:41,534 - Do unicode file recognition:  false
2018-07-22 21:14:41,534 - FileResourceLoader : adding path '.'
2018-07-22 21:14:41,596 - ResourceCache: initialized (class org.apache.velocity.runtime.resource.ResourceCacheImpl) with class java.util.Collections$SynchronizedMap cache map.
2018-07-22 21:14:41,597 - Loaded System Directive: org.apache.velocity.runtime.directive.Define
2018-07-22 21:14:41,597 - Loaded System Directive: org.apache.velocity.runtime.directive.Break
2018-07-22 21:14:41,598 - Loaded System Directive: org.apache.velocity.runtime.directive.Evaluate
2018-07-22 21:14:41,598 - Loaded System Directive: org.apache.velocity.runtime.directive.Literal
2018-07-22 21:14:41,599 - Loaded System Directive: org.apache.velocity.runtime.directive.Macro
2018-07-22 21:14:41,600 - Loaded System Directive: org.apache.velocity.runtime.directive.Parse
2018-07-22 21:14:41,601 - Loaded System Directive: org.apache.velocity.runtime.directive.Include
2018-07-22 21:14:41,602 - Loaded System Directive: org.apache.velocity.runtime.directive.Foreach
2018-07-22 21:14:41,629 - Created '20' parsers.
2018-07-22 21:14:41,632 - Velocimacro : "velocimacro.library" is not set.  Trying default library: VM_global_library.vm
2018-07-22 21:14:41,632 - Velocimacro : Default library not found.
2018-07-22 21:14:41,632 - Velocimacro : allowInline = true : VMs can be defined inline in templates
2018-07-22 21:14:41,632 - Velocimacro : allowInlineToOverride = false : VMs defined inline may NOT replace previous VM definitions
2018-07-22 21:14:41,632 - Velocimacro : allowInlineLocal = false : VMs defined inline will be global in scope if allowed.
2018-07-22 21:14:41,632 - Velocimacro : autoload off : VM system will not automatically reload global library macros
2018-07-22 21:59:32,956 - Log4JLogChute initialized using file 'velocity.log'
2018-07-22 21:59:32,995 - Starting Apache Velocity v1.6.2 (compiled: 2009-02-19 16:29:46)
2018-07-22 21:59:32,995 - Default Properties File: org/apache/velocity/runtime/defaults/velocity.properties
2018-07-22 21:59:32,995 - Trying to use logger class org.apache.velocity.runtime.log.AvalonLogChute
2018-07-22 21:59:32,995 - Target log system for org.apache.velocity.runtime.log.AvalonLogChute is not available (java.lang.NoClassDefFoundError: org/apache/log/format/Formatter).  Falling back to next log system...
2018-07-22 21:59:32,995 - Trying to use logger class org.apache.velocity.runtime.log.Log4JLogChute
2018-07-22 21:59:32,995 - Using logger class org.apache.velocity.runtime.log.Log4JLogChute
2018-07-22 21:59:32,998 - ResourceLoader instantiated: org.apache.velocity.runtime.resource.loader.FileResourceLoader
2018-07-22 21:59:32,999 - Do unicode file recognition:  false
2018-07-22 21:59:32,999 - FileResourceLoader : adding path '.'
2018-07-22 21:59:33,182 - ResourceCache: initialized (class org.apache.velocity.runtime.resource.ResourceCacheImpl) with class java.util.Collections$SynchronizedMap cache map.
2018-07-22 21:59:33,182 - Loaded System Directive: org.apache.velocity.runtime.directive.Define
2018-07-22 21:59:33,183 - Loaded System Directive: org.apache.velocity.runtime.directive.Break
2018-07-22 21:59:33,183 - Loaded System Directive: org.apache.velocity.runtime.directive.Evaluate
2018-07-22 21:59:33,183 - Loaded System Directive: org.apache.velocity.runtime.directive.Literal
2018-07-22 21:59:33,184 - Loaded System Directive: org.apache.velocity.runtime.directive.Macro
2018-07-22 21:59:33,184 - Loaded System Directive: org.apache.velocity.runtime.directive.Parse
2018-07-22 21:59:33,185 - Loaded System Directive: org.apache.velocity.runtime.directive.Include
2018-07-22 21:59:33,185 - Loaded System Directive: org.apache.velocity.runtime.directive.Foreach
2018-07-22 21:59:33,271 - Created '20' parsers.
2018-07-22 21:59:33,273 - Velocimacro : "velocimacro.library" is not set.  Trying default library: VM_global_library.vm
2018-07-22 21:59:33,274 - Velocimacro : Default library not found.
2018-07-22 21:59:33,274 - Velocimacro : allowInline = true : VMs can be defined inline in templates
2018-07-22 21:59:33,274 - Velocimacro : allowInlineToOverride = false : VMs defined inline may NOT replace previous VM definitions
2018-07-22 21:59:33,274 - Velocimacro : allowInlineLocal = false : VMs defined inline will be global in scope if allowed.
2018-07-22 21:59:33,274 - Velocimacro : autoload off : VM system will not automatically reload global library macros
2018-07-22 22:06:24,662 - Log4JLogChute initialized using file 'velocity.log'
2018-07-22 22:06:24,840 - Starting Apache Velocity v1.6.2 (compiled: 2009-02-19 16:29:46)
2018-07-22 22:06:24,840 - Default Properties File: org/apache/velocity/runtime/defaults/velocity.properties
2018-07-22 22:06:24,840 - Trying to use logger class org.apache.velocity.runtime.log.AvalonLogChute
2018-07-22 22:06:24,840 - Target log system for org.apache.velocity.runtime.log.AvalonLogChute is not available (java.lang.NoClassDefFoundError: org/apache/log/format/Formatter).  Falling back to next log system...
2018-07-22 22:06:24,840 - Trying to use logger class org.apache.velocity.runtime.log.Log4JLogChute
2018-07-22 22:06:24,840 - Using logger class org.apache.velocity.runtime.log.Log4JLogChute
2018-07-22 22:06:24,871 - ResourceLoader instantiated: org.apache.velocity.runtime.resource.loader.FileResourceLoader
2018-07-22 22:06:24,871 - Do unicode file recognition:  false
2018-07-22 22:06:24,872 - FileResourceLoader : adding path '.'
2018-07-22 22:06:25,039 - ResourceCache: initialized (class org.apache.velocity.runtime.resource.ResourceCacheImpl) with class java.util.Collections$SynchronizedMap cache map.
2018-07-22 22:06:25,040 - Loaded System Directive: org.apache.velocity.runtime.directive.Define
2018-07-22 22:06:25,040 - Loaded System Directive: org.apache.velocity.runtime.directive.Break
2018-07-22 22:06:25,041 - Loaded System Directive: org.apache.velocity.runtime.directive.Evaluate
2018-07-22 22:06:25,042 - Loaded System Directive: org.apache.velocity.runtime.directive.Literal
2018-07-22 22:06:25,043 - Loaded System Directive: org.apache.velocity.runtime.directive.Macro
2018-07-22 22:06:25,044 - Loaded System Directive: org.apache.velocity.runtime.directive.Parse
2018-07-22 22:06:25,045 - Loaded System Directive: org.apache.velocity.runtime.directive.Include
2018-07-22 22:06:25,046 - Loaded System Directive: org.apache.velocity.runtime.directive.Foreach
2018-07-22 22:06:25,071 - Created '20' parsers.
2018-07-22 22:06:25,074 - Velocimacro : "velocimacro.library" is not set.  Trying default library: VM_global_library.vm
2018-07-22 22:06:25,074 - Velocimacro : Default library not found.
2018-07-22 22:06:25,074 - Velocimacro : allowInline = true : VMs can be defined inline in templates
2018-07-22 22:06:25,074 - Velocimacro : allowInlineToOverride = false : VMs defined inline may NOT replace previous VM definitions
2018-07-22 22:06:25,074 - Velocimacro : allowInlineLocal = false : VMs defined inline will be global in scope if allowed.
2018-07-22 22:06:25,074 - Velocimacro : autoload off : VM system will not automatically reload global library macros
2018-07-22 22:06:26,063 - Null reference [template 'SADI', line 55, column 14] : $description.getInputClassURI() cannot be resolved.
2018-07-22 22:06:26,064 - Null reference [template 'SADI', line 56, column 15] : $description.getOutputClassURI() cannot be resolved.
2018-07-23 00:02:38,971 - Log4JLogChute initialized using file 'velocity.log'
2018-07-23 00:02:38,992 - Starting Apache Velocity v1.6.2 (compiled: 2009-02-19 16:29:46)
2018-07-23 00:02:38,992 - Default Properties File: org/apache/velocity/runtime/defaults/velocity.properties
2018-07-23 00:02:38,992 - Trying to use logger class org.apache.velocity.runtime.log.AvalonLogChute
2018-07-23 00:02:38,992 - Target log system for org.apache.velocity.runtime.log.AvalonLogChute is not available (java.lang.NoClassDefFoundError: org/apache/log/format/Formatter).  Falling back to next log system...
2018-07-23 00:02:38,992 - Trying to use logger class org.apache.velocity.runtime.log.Log4JLogChute
2018-07-23 00:02:38,992 - Using logger class org.apache.velocity.runtime.log.Log4JLogChute
2018-07-23 00:02:38,996 - ResourceLoader instantiated: org.apache.velocity.runtime.resource.loader.FileResourceLoader
2018-07-23 00:02:38,997 - Do unicode file recognition:  false
2018-07-23 00:02:38,997 - FileResourceLoader : adding path '.'
2018-07-23 00:02:39,281 - ResourceCache: initialized (class org.apache.velocity.runtime.resource.ResourceCacheImpl) with class java.util.Collections$SynchronizedMap cache map.
2018-07-23 00:02:39,282 - Loaded System Directive: org.apache.velocity.runtime.directive.Define
2018-07-23 00:02:39,283 - Loaded System Directive: org.apache.velocity.runtime.directive.Break
2018-07-23 00:02:39,283 - Loaded System Directive: org.apache.velocity.runtime.directive.Evaluate
2018-07-23 00:02:39,283 - Loaded System Directive: org.apache.velocity.runtime.directive.Literal
2018-07-23 00:02:39,284 - Loaded System Directive: org.apache.velocity.runtime.directive.Macro
2018-07-23 00:02:39,284 - Loaded System Directive: org.apache.velocity.runtime.directive.Parse
2018-07-23 00:02:39,285 - Loaded System Directive: org.apache.velocity.runtime.directive.Include
2018-07-23 00:02:39,285 - Loaded System Directive: org.apache.velocity.runtime.directive.Foreach
2018-07-23 00:02:39,334 - Created '20' parsers.
2018-07-23 00:02:39,337 - Velocimacro : "velocimacro.library" is not set.  Trying default library: VM_global_library.vm
2018-07-23 00:02:39,337 - Velocimacro : Default library not found.
2018-07-23 00:02:39,337 - Velocimacro : allowInline = true : VMs can be defined inline in templates
2018-07-23 00:02:39,337 - Velocimacro : allowInlineToOverride = false : VMs defined inline may NOT replace previous VM definitions
2018-07-23 00:02:39,337 - Velocimacro : allowInlineLocal = false : VMs defined inline will be global in scope if allowed.
2018-07-23 00:02:39,337 - Velocimacro : autoload off : VM system will not automatically reload global library macros
2018-07-23 00:02:39,471 - Null reference [template 'SADI', line 55, column 14] : $description.getInputClassURI() cannot be resolved.
2018-07-23 00:02:39,472 - Null reference [template 'SADI', line 56, column 15] : $description.getOutputClassURI() cannot be resolved.
2018-07-23 00:07:56,551 - Log4JLogChute initialized using file 'velocity.log'
2018-07-23 00:07:56,551 - Starting Apache Velocity v1.6.2 (compiled: 2009-02-19 16:29:46)
2018-07-23 00:07:56,551 - Default Properties File: org/apache/velocity/runtime/defaults/velocity.properties
2018-07-23 00:07:56,551 - Trying to use logger class org.apache.velocity.runtime.log.AvalonLogChute
2018-07-23 00:07:56,551 - Target log system for org.apache.velocity.runtime.log.AvalonLogChute is not available (java.lang.NoClassDefFoundError: org/apache/log/format/Formatter).  Falling back to next log system...
2018-07-23 00:07:56,551 - Trying to use logger class org.apache.velocity.runtime.log.Log4JLogChute
2018-07-23 00:07:56,551 - Using logger class org.apache.velocity.runtime.log.Log4JLogChute
2018-07-23 00:07:56,554 - ResourceLoader instantiated: org.apache.velocity.runtime.resource.loader.FileResourceLoader
2018-07-23 00:07:56,555 - Do unicode file recognition:  false
2018-07-23 00:07:56,555 - FileResourceLoader : adding path '.'
2018-07-23 00:07:56,560 - ResourceCache: initialized (class org.apache.velocity.runtime.resource.ResourceCacheImpl) with class java.util.Collections$SynchronizedMap cache map.
2018-07-23 00:07:56,561 - Loaded System Directive: org.apache.velocity.runtime.directive.Define
2018-07-23 00:07:56,561 - Loaded System Directive: org.apache.velocity.runtime.directive.Break
2018-07-23 00:07:56,562 - Loaded System Directive: org.apache.velocity.runtime.directive.Evaluate
2018-07-23 00:07:56,562 - Loaded System Directive: org.apache.velocity.runtime.directive.Literal
2018-07-23 00:07:56,562 - Loaded System Directive: org.apache.velocity.runtime.directive.Macro
2018-07-23 00:07:56,563 - Loaded System Directive: org.apache.velocity.runtime.directive.Parse
2018-07-23 00:07:56,564 - Loaded System Directive: org.apache.velocity.runtime.directive.Include
2018-07-23 00:07:56,564 - Loaded System Directive: org.apache.velocity.runtime.directive.Foreach
2018-07-23 00:07:56,580 - Created '20' parsers.
2018-07-23 00:07:56,582 - Velocimacro : "velocimacro.library" is not set.  Trying default library: VM_global_library.vm
2018-07-23 00:07:56,583 - Velocimacro : Default library not found.
2018-07-23 00:07:56,583 - Velocimacro : allowInline = true : VMs can be defined inline in templates
2018-07-23 00:07:56,583 - Velocimacro : allowInlineToOverride = false : VMs defined inline may NOT replace previous VM definitions
2018-07-23 00:07:56,583 - Velocimacro : allowInlineLocal = false : VMs defined inline will be global in scope if allowed.
2018-07-23 00:07:56,583 - Velocimacro : autoload off : VM system will not automatically reload global library macros
2018-07-23 00:07:56,642 - Null reference [template 'SADI', line 55, column 14] : $description.getInputClassURI() cannot be resolved.
2018-07-23 00:07:56,642 - Null reference [template 'SADI', line 56, column 15] : $description.getOutputClassURI() cannot be resolved.
2018-07-23 00:10:11,311 - Log4JLogChute initialized using file 'velocity.log'
2018-07-23 00:10:11,312 - Starting Apache Velocity v1.6.2 (compiled: 2009-02-19 16:29:46)
2018-07-23 00:10:11,312 - Default Properties File: org/apache/velocity/runtime/defaults/velocity.properties
2018-07-23 00:10:11,312 - Trying to use logger class org.apache.velocity.runtime.log.AvalonLogChute
2018-07-23 00:10:11,312 - Target log system for org.apache.velocity.runtime.log.AvalonLogChute is not available (java.lang.NoClassDefFoundError: org/apache/log/format/Formatter).  Falling back to next log system...
2018-07-23 00:10:11,312 - Trying to use logger class org.apache.velocity.runtime.log.Log4JLogChute
2018-07-23 00:10:11,312 - Using logger class org.apache.velocity.runtime.log.Log4JLogChute
2018-07-23 00:10:11,314 - ResourceLoader instantiated: org.apache.velocity.runtime.resource.loader.FileResourceLoader
2018-07-23 00:10:11,314 - Do unicode file recognition:  false
2018-07-23 00:10:11,314 - FileResourceLoader : adding path '.'
2018-07-23 00:10:11,320 - ResourceCache: initialized (class org.apache.velocity.runtime.resource.ResourceCacheImpl) with class java.util.Collections$SynchronizedMap cache map.
2018-07-23 00:10:11,321 - Loaded System Directive: org.apache.velocity.runtime.directive.Define
2018-07-23 00:10:11,321 - Loaded System Directive: org.apache.velocity.runtime.directive.Break
2018-07-23 00:10:11,321 - Loaded System Directive: org.apache.velocity.runtime.directive.Evaluate
2018-07-23 00:10:11,322 - Loaded System Directive: org.apache.velocity.runtime.directive.Literal
2018-07-23 00:10:11,322 - Loaded System Directive: org.apache.velocity.runtime.directive.Macro
2018-07-23 00:10:11,323 - Loaded System Directive: org.apache.velocity.runtime.directive.Parse
2018-07-23 00:10:11,323 - Loaded System Directive: org.apache.velocity.runtime.directive.Include
2018-07-23 00:10:11,324 - Loaded System Directive: org.apache.velocity.runtime.directive.Foreach
2018-07-23 00:10:11,340 - Created '20' parsers.
2018-07-23 00:10:11,342 - Velocimacro : "velocimacro.library" is not set.  Trying default library: VM_global_library.vm
2018-07-23 00:10:11,342 - Velocimacro : Default library not found.
2018-07-23 00:10:11,342 - Velocimacro : allowInline = true : VMs can be defined inline in templates
2018-07-23 00:10:11,342 - Velocimacro : allowInlineToOverride = false : VMs defined inline may NOT replace previous VM definitions
2018-07-23 00:10:11,342 - Velocimacro : allowInlineLocal = false : VMs defined inline will be global in scope if allowed.
2018-07-23 00:10:11,342 - Velocimacro : autoload off : VM system will not automatically reload global library macros
2018-07-23 00:10:11,389 - Null reference [template 'SADI', line 55, column 14] : $description.getInputClassURI() cannot be resolved.
2018-07-23 00:10:11,389 - Null reference [template 'SADI', line 56, column 15] : $description.getOutputClassURI() cannot be resolved.
2018-07-23 00:13:46,093 - Log4JLogChute initialized using file 'velocity.log'
2018-07-23 00:13:46,094 - Starting Apache Velocity v1.6.2 (compiled: 2009-02-19 16:29:46)
2018-07-23 00:13:46,094 - Default Properties File: org/apache/velocity/runtime/defaults/velocity.properties
2018-07-23 00:13:46,094 - Trying to use logger class org.apache.velocity.runtime.log.AvalonLogChute
2018-07-23 00:13:46,094 - Target log system for org.apache.velocity.runtime.log.AvalonLogChute is not available (java.lang.NoClassDefFoundError: org/apache/log/format/Formatter).  Falling back to next log system...
2018-07-23 00:13:46,094 - Trying to use logger class org.apache.velocity.runtime.log.Log4JLogChute
2018-07-23 00:13:46,094 - Using logger class org.apache.velocity.runtime.log.Log4JLogChute
2018-07-23 00:13:46,097 - ResourceLoader instantiated: org.apache.velocity.runtime.resource.loader.FileResourceLoader
2018-07-23 00:13:46,098 - Do unicode file recognition:  false
2018-07-23 00:13:46,098 - FileResourceLoader : adding path '.'
2018-07-23 00:13:46,104 - ResourceCache: initialized (class org.apache.velocity.runtime.resource.ResourceCacheImpl) with class java.util.Collections$SynchronizedMap cache map.
2018-07-23 00:13:46,105 - Loaded System Directive: org.apache.velocity.runtime.directive.Define
2018-07-23 00:13:46,106 - Loaded System Directive: org.apache.velocity.runtime.directive.Break
2018-07-23 00:13:46,106 - Loaded System Directive: org.apache.velocity.runtime.directive.Evaluate
2018-07-23 00:13:46,106 - Loaded System Directive: org.apache.velocity.runtime.directive.Literal
2018-07-23 00:13:46,107 - Loaded System Directive: org.apache.velocity.runtime.directive.Macro
2018-07-23 00:13:46,107 - Loaded System Directive: org.apache.velocity.runtime.directive.Parse
2018-07-23 00:13:46,108 - Loaded System Directive: org.apache.velocity.runtime.directive.Include
2018-07-23 00:13:46,108 - Loaded System Directive: org.apache.velocity.runtime.directive.Foreach
2018-07-23 00:13:46,124 - Created '20' parsers.
2018-07-23 00:13:46,127 - Velocimacro : "velocimacro.library" is not set.  Trying default library: VM_global_library.vm
2018-07-23 00:13:46,127 - Velocimacro : Default library not found.
2018-07-23 00:13:46,127 - Velocimacro : allowInline = true : VMs can be defined inline in templates
2018-07-23 00:13:46,127 - Velocimacro : allowInlineToOverride = false : VMs defined inline may NOT replace previous VM definitions
2018-07-23 00:13:46,127 - Velocimacro : allowInlineLocal = false : VMs defined inline will be global in scope if allowed.
2018-07-23 00:13:46,127 - Velocimacro : autoload off : VM system will not automatically reload global library macros
2018-07-23 00:13:46,172 - Null reference [template 'SADI', line 55, column 14] : $description.getInputClassURI() cannot be resolved.
2018-07-23 00:13:46,172 - Null reference [template 'SADI', line 56, column 15] : $description.getOutputClassURI() cannot be resolved.
2018-07-23 00:15:12,751 - Log4JLogChute initialized using file 'velocity.log'
2018-07-23 00:15:12,751 - Starting Apache Velocity v1.6.2 (compiled: 2009-02-19 16:29:46)
2018-07-23 00:15:12,751 - Default Properties File: org/apache/velocity/runtime/defaults/velocity.properties
2018-07-23 00:15:12,751 - Trying to use logger class org.apache.velocity.runtime.log.AvalonLogChute
2018-07-23 00:15:12,751 - Target log system for org.apache.velocity.runtime.log.AvalonLogChute is not available (java.lang.NoClassDefFoundError: org/apache/log/format/Formatter).  Falling back to next log system...
2018-07-23 00:15:12,751 - Trying to use logger class org.apache.velocity.runtime.log.Log4JLogChute
2018-07-23 00:15:12,751 - Using logger class org.apache.velocity.runtime.log.Log4JLogChute
2018-07-23 00:15:12,753 - ResourceLoader instantiated: org.apache.velocity.runtime.resource.loader.FileResourceLoader
2018-07-23 00:15:12,754 - Do unicode file recognition:  false
2018-07-23 00:15:12,754 - FileResourceLoader : adding path '.'
2018-07-23 00:15:12,761 - ResourceCache: initialized (class org.apache.velocity.runtime.resource.ResourceCacheImpl) with class java.util.Collections$SynchronizedMap cache map.
2018-07-23 00:15:12,762 - Loaded System Directive: org.apache.velocity.runtime.directive.Define
2018-07-23 00:15:12,762 - Loaded System Directive: org.apache.velocity.runtime.directive.Break
2018-07-23 00:15:12,762 - Loaded System Directive: org.apache.velocity.runtime.directive.Evaluate
2018-07-23 00:15:12,763 - Loaded System Directive: org.apache.velocity.runtime.directive.Literal
2018-07-23 00:15:12,763 - Loaded System Directive: org.apache.velocity.runtime.directive.Macro
2018-07-23 00:15:12,764 - Loaded System Directive: org.apache.velocity.runtime.directive.Parse
2018-07-23 00:15:12,765 - Loaded System Directive: org.apache.velocity.runtime.directive.Include
2018-07-23 00:15:12,765 - Loaded System Directive: org.apache.velocity.runtime.directive.Foreach
2018-07-23 00:15:12,781 - Created '20' parsers.
2018-07-23 00:15:12,784 - Velocimacro : "velocimacro.library" is not set.  Trying default library: VM_global_library.vm
2018-07-23 00:15:12,784 - Velocimacro : Default library not found.
2018-07-23 00:15:12,784 - Velocimacro : allowInline = true : VMs can be defined inline in templates
2018-07-23 00:15:12,784 - Velocimacro : allowInlineToOverride = false : VMs defined inline may NOT replace previous VM definitions
2018-07-23 00:15:12,784 - Velocimacro : allowInlineLocal = false : VMs defined inline will be global in scope if allowed.
2018-07-23 00:15:12,784 - Velocimacro : autoload off : VM system will not automatically reload global library macros
2018-07-23 00:15:12,827 - Null reference [template 'SADI', line 55, column 14] : $description.getInputClassURI() cannot be resolved.
2018-07-23 00:15:12,827 - Null reference [template 'SADI', line 56, column 15] : $description.getOutputClassURI() cannot be resolved.
2018-07-23 00:16:32,598 - Log4JLogChute initialized using file 'velocity.log'
2018-07-23 00:16:32,598 - Starting Apache Velocity v1.6.2 (compiled: 2009-02-19 16:29:46)
2018-07-23 00:16:32,598 - Default Properties File: org/apache/velocity/runtime/defaults/velocity.properties
2018-07-23 00:16:32,598 - Trying to use logger class org.apache.velocity.runtime.log.AvalonLogChute
2018-07-23 00:16:32,598 - Target log system for org.apache.velocity.runtime.log.AvalonLogChute is not available (java.lang.NoClassDefFoundError: org/apache/log/format/Formatter).  Falling back to next log system...
2018-07-23 00:16:32,598 - Trying to use logger class org.apache.velocity.runtime.log.Log4JLogChute
2018-07-23 00:16:32,598 - Using logger class org.apache.velocity.runtime.log.Log4JLogChute
2018-07-23 00:16:32,602 - ResourceLoader instantiated: org.apache.velocity.runtime.resource.loader.FileResourceLoader
2018-07-23 00:16:32,603 - Do unicode file recognition:  false
2018-07-23 00:16:32,603 - FileResourceLoader : adding path '.'
2018-07-23 00:16:32,609 - ResourceCache: initialized (class org.apache.velocity.runtime.resource.ResourceCacheImpl) with class java.util.Collections$SynchronizedMap cache map.
2018-07-23 00:16:32,609 - Loaded System Directive: org.apache.velocity.runtime.directive.Define
2018-07-23 00:16:32,610 - Loaded System Directive: org.apache.velocity.runtime.directive.Break
2018-07-23 00:16:32,610 - Loaded System Directive: org.apache.velocity.runtime.directive.Evaluate
2018-07-23 00:16:32,610 - Loaded System Directive: org.apache.velocity.runtime.directive.Literal
2018-07-23 00:16:32,611 - Loaded System Directive: org.apache.velocity.runtime.directive.Macro
2018-07-23 00:16:32,611 - Loaded System Directive: org.apache.velocity.runtime.directive.Parse
2018-07-23 00:16:32,612 - Loaded System Directive: org.apache.velocity.runtime.directive.Include
2018-07-23 00:16:32,612 - Loaded System Directive: org.apache.velocity.runtime.directive.Foreach
2018-07-23 00:16:32,628 - Created '20' parsers.
2018-07-23 00:16:32,631 - Velocimacro : "velocimacro.library" is not set.  Trying default library: VM_global_library.vm
2018-07-23 00:16:32,631 - Velocimacro : Default library not found.
2018-07-23 00:16:32,631 - Velocimacro : allowInline = true : VMs can be defined inline in templates
2018-07-23 00:16:32,631 - Velocimacro : allowInlineToOverride = false : VMs defined inline may NOT replace previous VM definitions
2018-07-23 00:16:32,631 - Velocimacro : allowInlineLocal = false : VMs defined inline will be global in scope if allowed.
2018-07-23 00:16:32,631 - Velocimacro : autoload off : VM system will not automatically reload global library macros
2018-07-23 00:16:32,669 - Null reference [template 'SADI', line 55, column 14] : $description.getInputClassURI() cannot be resolved.
2018-07-23 00:16:32,669 - Null reference [template 'SADI', line 56, column 15] : $description.getOutputClassURI() cannot be resolved.
2018-07-23 00:18:44,273 - Log4JLogChute initialized using file 'velocity.log'
2018-07-23 00:18:44,273 - Starting Apache Velocity v1.6.2 (compiled: 2009-02-19 16:29:46)
2018-07-23 00:18:44,273 - Default Properties File: org/apache/velocity/runtime/defaults/velocity.properties
2018-07-23 00:18:44,273 - Trying to use logger class org.apache.velocity.runtime.log.AvalonLogChute
2018-07-23 00:18:44,273 - Target log system for org.apache.velocity.runtime.log.AvalonLogChute is not available (java.lang.NoClassDefFoundError: org/apache/log/format/Formatter).  Falling back to next log system...
2018-07-23 00:18:44,273 - Trying to use logger class org.apache.velocity.runtime.log.Log4JLogChute
2018-07-23 00:18:44,273 - Using logger class org.apache.velocity.runtime.log.Log4JLogChute
2018-07-23 00:18:44,277 - ResourceLoader instantiated: org.apache.velocity.runtime.resource.loader.FileResourceLoader
2018-07-23 00:18:44,278 - Do unicode file recognition:  false
2018-07-23 00:18:44,278 - FileResourceLoader : adding path '.'
2018-07-23 00:18:44,284 - ResourceCache: initialized (class org.apache.velocity.runtime.resource.ResourceCacheImpl) with class java.util.Collections$SynchronizedMap cache map.
2018-07-23 00:18:44,285 - Loaded System Directive: org.apache.velocity.runtime.directive.Define
2018-07-23 00:18:44,285 - Loaded System Directive: org.apache.velocity.runtime.directive.Break
2018-07-23 00:18:44,285 - Loaded System Directive: org.apache.velocity.runtime.directive.Evaluate
2018-07-23 00:18:44,286 - Loaded System Directive: org.apache.velocity.runtime.directive.Literal
2018-07-23 00:18:44,286 - Loaded System Directive: org.apache.velocity.runtime.directive.Macro
2018-07-23 00:18:44,287 - Loaded System Directive: org.apache.velocity.runtime.directive.Parse
2018-07-23 00:18:44,287 - Loaded System Directive: org.apache.velocity.runtime.directive.Include
2018-07-23 00:18:44,288 - Loaded System Directive: org.apache.velocity.runtime.directive.Foreach
2018-07-23 00:18:44,303 - Created '20' parsers.
2018-07-23 00:18:44,306 - Velocimacro : "velocimacro.library" is not set.  Trying default library: VM_global_library.vm
2018-07-23 00:18:44,306 - Velocimacro : Default library not found.
2018-07-23 00:18:44,306 - Velocimacro : allowInline = true : VMs can be defined inline in templates
2018-07-23 00:18:44,306 - Velocimacro : allowInlineToOverride = false : VMs defined inline may NOT replace previous VM definitions
2018-07-23 00:18:44,306 - Velocimacro : allowInlineLocal = false : VMs defined inline will be global in scope if allowed.
2018-07-23 00:18:44,306 - Velocimacro : autoload off : VM system will not automatically reload global library macros
2018-07-23 00:18:44,350 - Null reference [template 'SADI', line 55, column 14] : $description.getInputClassURI() cannot be resolved.
2018-07-23 00:18:44,350 - Null reference [template 'SADI', line 56, column 15] : $description.getOutputClassURI() cannot be resolved.
2018-07-23 00:21:32,699 - Log4JLogChute initialized using file 'velocity.log'
2018-07-23 00:21:32,700 - Starting Apache Velocity v1.6.2 (compiled: 2009-02-19 16:29:46)
2018-07-23 00:21:32,700 - Default Properties File: org/apache/velocity/runtime/defaults/velocity.properties
2018-07-23 00:21:32,700 - Trying to use logger class org.apache.velocity.runtime.log.AvalonLogChute
2018-07-23 00:21:32,700 - Target log system for org.apache.velocity.runtime.log.AvalonLogChute is not available (java.lang.NoClassDefFoundError: org/apache/log/format/Formatter).  Falling back to next log system...
2018-07-23 00:21:32,700 - Trying to use logger class org.apache.velocity.runtime.log.Log4JLogChute
2018-07-23 00:21:32,700 - Using logger class org.apache.velocity.runtime.log.Log4JLogChute
2018-07-23 00:21:32,702 - ResourceLoader instantiated: org.apache.velocity.runtime.resource.loader.FileResourceLoader
2018-07-23 00:21:32,703 - Do unicode file recognition:  false
2018-07-23 00:21:32,703 - FileResourceLoader : adding path '.'
2018-07-23 00:21:32,708 - ResourceCache: initialized (class org.apache.velocity.runtime.resource.ResourceCacheImpl) with class java.util.Collections$SynchronizedMap cache map.
2018-07-23 00:21:32,709 - Loaded System Directive: org.apache.velocity.runtime.directive.Define
2018-07-23 00:21:32,709 - Loaded System Directive: org.apache.velocity.runtime.directive.Break
2018-07-23 00:21:32,710 - Loaded System Directive: org.apache.velocity.runtime.directive.Evaluate
2018-07-23 00:21:32,710 - Loaded System Directive: org.apache.velocity.runtime.directive.Literal
2018-07-23 00:21:32,710 - Loaded System Directive: org.apache.velocity.runtime.directive.Macro
2018-07-23 00:21:32,711 - Loaded System Directive: org.apache.velocity.runtime.directive.Parse
2018-07-23 00:21:32,711 - Loaded System Directive: org.apache.velocity.runtime.directive.Include
2018-07-23 00:21:32,712 - Loaded System Directive: org.apache.velocity.runtime.directive.Foreach
2018-07-23 00:21:32,728 - Created '20' parsers.
2018-07-23 00:21:32,731 - Velocimacro : "velocimacro.library" is not set.  Trying default library: VM_global_library.vm
2018-07-23 00:21:32,731 - Velocimacro : Default library not found.
2018-07-23 00:21:32,731 - Velocimacro : allowInline = true : VMs can be defined inline in templates
2018-07-23 00:21:32,731 - Velocimacro : allowInlineToOverride = false : VMs defined inline may NOT replace previous VM definitions
2018-07-23 00:21:32,731 - Velocimacro : allowInlineLocal = false : VMs defined inline will be global in scope if allowed.
2018-07-23 00:21:32,731 - Velocimacro : autoload off : VM system will not automatically reload global library macros
2018-07-23 00:21:32,771 - Null reference [template 'SADI', line 55, column 14] : $description.getInputClassURI() cannot be resolved.
2018-07-23 00:21:32,771 - Null reference [template 'SADI', line 56, column 15] : $description.getOutputClassURI() cannot be resolved.
2018-07-23 00:23:08,838 - Log4JLogChute initialized using file 'velocity.log'
2018-07-23 00:23:08,839 - Starting Apache Velocity v1.6.2 (compiled: 2009-02-19 16:29:46)
2018-07-23 00:23:08,839 - Default Properties File: org/apache/velocity/runtime/defaults/velocity.properties
2018-07-23 00:23:08,839 - Trying to use logger class org.apache.velocity.runtime.log.AvalonLogChute
2018-07-23 00:23:08,839 - Target log system for org.apache.velocity.runtime.log.AvalonLogChute is not available (java.lang.NoClassDefFoundError: org/apache/log/format/Formatter).  Falling back to next log system...
2018-07-23 00:23:08,839 - Trying to use logger class org.apache.velocity.runtime.log.Log4JLogChute
2018-07-23 00:23:08,839 - Using logger class org.apache.velocity.runtime.log.Log4JLogChute
2018-07-23 00:23:08,842 - ResourceLoader instantiated: org.apache.velocity.runtime.resource.loader.FileResourceLoader
2018-07-23 00:23:08,842 - Do unicode file recognition:  false
2018-07-23 00:23:08,843 - FileResourceLoader : adding path '.'
2018-07-23 00:23:08,849 - ResourceCache: initialized (class org.apache.velocity.runtime.resource.ResourceCacheImpl) with class java.util.Collections$SynchronizedMap cache map.
2018-07-23 00:23:08,850 - Loaded System Directive: org.apache.velocity.runtime.directive.Define
2018-07-23 00:23:08,850 - Loaded System Directive: org.apache.velocity.runtime.directive.Break
2018-07-23 00:23:08,850 - Loaded System Directive: org.apache.velocity.runtime.directive.Evaluate
2018-07-23 00:23:08,850 - Loaded System Directive: org.apache.velocity.runtime.directive.Literal
2018-07-23 00:23:08,851 - Loaded System Directive: org.apache.velocity.runtime.directive.Macro
2018-07-23 00:23:08,852 - Loaded System Directive: org.apache.velocity.runtime.directive.Parse
2018-07-23 00:23:08,852 - Loaded System Directive: org.apache.velocity.runtime.directive.Include
2018-07-23 00:23:08,853 - Loaded System Directive: org.apache.velocity.runtime.directive.Foreach
2018-07-23 00:23:08,869 - Created '20' parsers.
2018-07-23 00:23:08,872 - Velocimacro : "velocimacro.library" is not set.  Trying default library: VM_global_library.vm
2018-07-23 00:23:08,872 - Velocimacro : Default library not found.
2018-07-23 00:23:08,872 - Velocimacro : allowInline = true : VMs can be defined inline in templates
2018-07-23 00:23:08,872 - Velocimacro : allowInlineToOverride = false : VMs defined inline may NOT replace previous VM definitions
2018-07-23 00:23:08,872 - Velocimacro : allowInlineLocal = false : VMs defined inline will be global in scope if allowed.
2018-07-23 00:23:08,872 - Velocimacro : autoload off : VM system will not automatically reload global library macros
2018-07-23 00:23:08,912 - Null reference [template 'SADI', line 55, column 14] : $description.getInputClassURI() cannot be resolved.
2018-07-23 00:23:08,913 - Null reference [template 'SADI', line 56, column 15] : $description.getOutputClassURI() cannot be resolved.
2018-07-23 00:23:52,430 - Log4JLogChute initialized using file 'velocity.log'
2018-07-23 00:23:52,430 - Starting Apache Velocity v1.6.2 (compiled: 2009-02-19 16:29:46)
2018-07-23 00:23:52,430 - Default Properties File: org/apache/velocity/runtime/defaults/velocity.properties
2018-07-23 00:23:52,431 - Trying to use logger class org.apache.velocity.runtime.log.AvalonLogChute
2018-07-23 00:23:52,431 - Target log system for org.apache.velocity.runtime.log.AvalonLogChute is not available (java.lang.NoClassDefFoundError: org/apache/log/format/Formatter).  Falling back to next log system...
2018-07-23 00:23:52,431 - Trying to use logger class org.apache.velocity.runtime.log.Log4JLogChute
2018-07-23 00:23:52,431 - Using logger class org.apache.velocity.runtime.log.Log4JLogChute
2018-07-23 00:23:52,434 - ResourceLoader instantiated: org.apache.velocity.runtime.resource.loader.FileResourceLoader
2018-07-23 00:23:52,435 - Do unicode file recognition:  false
2018-07-23 00:23:52,435 - FileResourceLoader : adding path '.'
2018-07-23 00:23:52,441 - ResourceCache: initialized (class org.apache.velocity.runtime.resource.ResourceCacheImpl) with class java.util.Collections$SynchronizedMap cache map.
2018-07-23 00:23:52,441 - Loaded System Directive: org.apache.velocity.runtime.directive.Define
2018-07-23 00:23:52,442 - Loaded System Directive: org.apache.velocity.runtime.directive.Break
2018-07-23 00:23:52,442 - Loaded System Directive: org.apache.velocity.runtime.directive.Evaluate
2018-07-23 00:23:52,442 - Loaded System Directive: org.apache.velocity.runtime.directive.Literal
2018-07-23 00:23:52,443 - Loaded System Directive: org.apache.velocity.runtime.directive.Macro
2018-07-23 00:23:52,443 - Loaded System Directive: org.apache.velocity.runtime.directive.Parse
2018-07-23 00:23:52,444 - Loaded System Directive: org.apache.velocity.runtime.directive.Include
2018-07-23 00:23:52,444 - Loaded System Directive: org.apache.velocity.runtime.directive.Foreach
2018-07-23 00:23:52,460 - Created '20' parsers.
2018-07-23 00:23:52,463 - Velocimacro : "velocimacro.library" is not set.  Trying default library: VM_global_library.vm
2018-07-23 00:23:52,463 - Velocimacro : Default library not found.
2018-07-23 00:23:52,463 - Velocimacro : allowInline = true : VMs can be defined inline in templates
2018-07-23 00:23:52,463 - Velocimacro : allowInlineToOverride = false : VMs defined inline may NOT replace previous VM definitions
2018-07-23 00:23:52,463 - Velocimacro : allowInlineLocal = false : VMs defined inline will be global in scope if allowed.
2018-07-23 00:23:52,463 - Velocimacro : autoload off : VM system will not automatically reload global library macros
2018-07-23 00:23:52,510 - Null reference [template 'SADI', line 55, column 14] : $description.getInputClassURI() cannot be resolved.
2018-07-23 00:23:52,510 - Null reference [template 'SADI', line 56, column 15] : $description.getOutputClassURI() cannot be resolved.
2018-07-23 00:44:47,799 - Log4JLogChute initialized using file 'velocity.log'
2018-07-23 00:44:47,799 - Starting Apache Velocity v1.6.2 (compiled: 2009-02-19 16:29:46)
2018-07-23 00:44:47,799 - Default Properties File: org/apache/velocity/runtime/defaults/velocity.properties
2018-07-23 00:44:47,799 - Trying to use logger class org.apache.velocity.runtime.log.AvalonLogChute
2018-07-23 00:44:47,799 - Target log system for org.apache.velocity.runtime.log.AvalonLogChute is not available (java.lang.NoClassDefFoundError: org/apache/log/format/Formatter).  Falling back to next log system...
2018-07-23 00:44:47,799 - Trying to use logger class org.apache.velocity.runtime.log.Log4JLogChute
2018-07-23 00:44:47,799 - Using logger class org.apache.velocity.runtime.log.Log4JLogChute
2018-07-23 00:44:47,803 - ResourceLoader instantiated: org.apache.velocity.runtime.resource.loader.FileResourceLoader
2018-07-23 00:44:47,804 - Do unicode file recognition:  false
2018-07-23 00:44:47,804 - FileResourceLoader : adding path '.'
2018-07-23 00:44:47,810 - ResourceCache: initialized (class org.apache.velocity.runtime.resource.ResourceCacheImpl) with class java.util.Collections$SynchronizedMap cache map.
2018-07-23 00:44:47,810 - Loaded System Directive: org.apache.velocity.runtime.directive.Define
2018-07-23 00:44:47,811 - Loaded System Directive: org.apache.velocity.runtime.directive.Break
2018-07-23 00:44:47,811 - Loaded System Directive: org.apache.velocity.runtime.directive.Evaluate
2018-07-23 00:44:47,811 - Loaded System Directive: org.apache.velocity.runtime.directive.Literal
2018-07-23 00:44:47,812 - Loaded System Directive: org.apache.velocity.runtime.directive.Macro
2018-07-23 00:44:47,812 - Loaded System Directive: org.apache.velocity.runtime.directive.Parse
2018-07-23 00:44:47,813 - Loaded System Directive: org.apache.velocity.runtime.directive.Include
2018-07-23 00:44:47,813 - Loaded System Directive: org.apache.velocity.runtime.directive.Foreach
2018-07-23 00:44:47,829 - Created '20' parsers.
2018-07-23 00:44:47,832 - Velocimacro : "velocimacro.library" is not set.  Trying default library: VM_global_library.vm
2018-07-23 00:44:47,832 - Velocimacro : Default library not found.
2018-07-23 00:44:47,832 - Velocimacro : allowInline = true : VMs can be defined inline in templates
2018-07-23 00:44:47,832 - Velocimacro : allowInlineToOverride = false : VMs defined inline may NOT replace previous VM definitions
2018-07-23 00:44:47,832 - Velocimacro : allowInlineLocal = false : VMs defined inline will be global in scope if allowed.
2018-07-23 00:44:47,832 - Velocimacro : autoload off : VM system will not automatically reload global library macros
2018-07-23 00:44:47,870 - Null reference [template 'SADI', line 55, column 14] : $description.getInputClassURI() cannot be resolved.
2018-07-23 00:44:47,870 - Null reference [template 'SADI', line 56, column 15] : $description.getOutputClassURI() cannot be resolved.
2018-07-23 01:04:24,524 - Log4JLogChute initialized using file 'velocity.log'
2018-07-23 01:04:24,524 - Starting Apache Velocity v1.6.2 (compiled: 2009-02-19 16:29:46)
2018-07-23 01:04:24,524 - Default Properties File: org/apache/velocity/runtime/defaults/velocity.properties
2018-07-23 01:04:24,524 - Trying to use logger class org.apache.velocity.runtime.log.AvalonLogChute
2018-07-23 01:04:24,524 - Target log system for org.apache.velocity.runtime.log.AvalonLogChute is not available (java.lang.NoClassDefFoundError: org/apache/log/format/Formatter).  Falling back to next log system...
2018-07-23 01:04:24,524 - Trying to use logger class org.apache.velocity.runtime.log.Log4JLogChute
2018-07-23 01:04:24,524 - Using logger class org.apache.velocity.runtime.log.Log4JLogChute
2018-07-23 01:04:24,528 - ResourceLoader instantiated: org.apache.velocity.runtime.resource.loader.FileResourceLoader
2018-07-23 01:04:24,529 - Do unicode file recognition:  false
2018-07-23 01:04:24,529 - FileResourceLoader : adding path '.'
2018-07-23 01:04:24,534 - ResourceCache: initialized (class org.apache.velocity.runtime.resource.ResourceCacheImpl) with class java.util.Collections$SynchronizedMap cache map.
2018-07-23 01:04:24,535 - Loaded System Directive: org.apache.velocity.runtime.directive.Define
2018-07-23 01:04:24,535 - Loaded System Directive: org.apache.velocity.runtime.directive.Break
2018-07-23 01:04:24,536 - Loaded System Directive: org.apache.velocity.runtime.directive.Evaluate
2018-07-23 01:04:24,536 - Loaded System Directive: org.apache.velocity.runtime.directive.Literal
2018-07-23 01:04:24,536 - Loaded System Directive: org.apache.velocity.runtime.directive.Macro
2018-07-23 01:04:24,537 - Loaded System Directive: org.apache.velocity.runtime.directive.Parse
2018-07-23 01:04:24,537 - Loaded System Directive: org.apache.velocity.runtime.directive.Include
2018-07-23 01:04:24,538 - Loaded System Directive: org.apache.velocity.runtime.directive.Foreach
2018-07-23 01:04:24,554 - Created '20' parsers.
2018-07-23 01:04:24,556 - Velocimacro : "velocimacro.library" is not set.  Trying default library: VM_global_library.vm
2018-07-23 01:04:24,556 - Velocimacro : Default library not found.
2018-07-23 01:04:24,556 - Velocimacro : allowInline = true : VMs can be defined inline in templates
2018-07-23 01:04:24,556 - Velocimacro : allowInlineToOverride = false : VMs defined inline may NOT replace previous VM definitions
2018-07-23 01:04:24,556 - Velocimacro : allowInlineLocal = false : VMs defined inline will be global in scope if allowed.
2018-07-23 01:04:24,556 - Velocimacro : autoload off : VM system will not automatically reload global library macros
2018-07-23 01:04:24,598 - Null reference [template 'SADI', line 55, column 14] : $description.getInputClassURI() cannot be resolved.
2018-07-23 01:04:24,598 - Null reference [template 'SADI', line 56, column 15] : $description.getOutputClassURI() cannot be resolved.
2018-07-23 01:27:48,223 - Log4JLogChute initialized using file 'velocity.log'
2018-07-23 01:27:48,224 - Starting Apache Velocity v1.6.2 (compiled: 2009-02-19 16:29:46)
2018-07-23 01:27:48,224 - Default Properties File: org/apache/velocity/runtime/defaults/velocity.properties
2018-07-23 01:27:48,224 - Trying to use logger class org.apache.velocity.runtime.log.AvalonLogChute
2018-07-23 01:27:48,224 - Target log system for org.apache.velocity.runtime.log.AvalonLogChute is not available (java.lang.NoClassDefFoundError: org/apache/log/format/Formatter).  Falling back to next log system...
2018-07-23 01:27:48,224 - Trying to use logger class org.apache.velocity.runtime.log.Log4JLogChute
2018-07-23 01:27:48,224 - Using logger class org.apache.velocity.runtime.log.Log4JLogChute
2018-07-23 01:27:48,228 - ResourceLoader instantiated: org.apache.velocity.runtime.resource.loader.FileResourceLoader
2018-07-23 01:27:48,229 - Do unicode file recognition:  false
2018-07-23 01:27:48,229 - FileResourceLoader : adding path '.'
2018-07-23 01:27:48,241 - ResourceCache: initialized (class org.apache.velocity.runtime.resource.ResourceCacheImpl) with class java.util.Collections$SynchronizedMap cache map.
2018-07-23 01:27:48,243 - Loaded System Directive: org.apache.velocity.runtime.directive.Define
2018-07-23 01:27:48,244 - Loaded System Directive: org.apache.velocity.runtime.directive.Break
2018-07-23 01:27:48,245 - Loaded System Directive: org.apache.velocity.runtime.directive.Evaluate
2018-07-23 01:27:48,245 - Loaded System Directive: org.apache.velocity.runtime.directive.Literal
2018-07-23 01:27:48,246 - Loaded System Directive: org.apache.velocity.runtime.directive.Macro
2018-07-23 01:27:48,248 - Loaded System Directive: org.apache.velocity.runtime.directive.Parse
2018-07-23 01:27:48,249 - Loaded System Directive: org.apache.velocity.runtime.directive.Include
2018-07-23 01:27:48,250 - Loaded System Directive: org.apache.velocity.runtime.directive.Foreach
2018-07-23 01:27:48,276 - Created '20' parsers.
2018-07-23 01:27:48,281 - Velocimacro : "velocimacro.library" is not set.  Trying default library: VM_global_library.vm
2018-07-23 01:27:48,281 - Velocimacro : Default library not found.
2018-07-23 01:27:48,281 - Velocimacro : allowInline = true : VMs can be defined inline in templates
2018-07-23 01:27:48,281 - Velocimacro : allowInlineToOverride = false : VMs defined inline may NOT replace previous VM definitions
2018-07-23 01:27:48,281 - Velocimacro : allowInlineLocal = false : VMs defined inline will be global in scope if allowed.
2018-07-23 01:27:48,281 - Velocimacro : autoload off : VM system will not automatically reload global library macros
2018-07-23 01:29:52,169 - Log4JLogChute initialized using file 'velocity.log'
2018-07-23 01:29:52,170 - Starting Apache Velocity v1.6.2 (compiled: 2009-02-19 16:29:46)
2018-07-23 01:29:52,170 - Default Properties File: org/apache/velocity/runtime/defaults/velocity.properties
2018-07-23 01:29:52,170 - Trying to use logger class org.apache.velocity.runtime.log.AvalonLogChute
2018-07-23 01:29:52,170 - Target log system for org.apache.velocity.runtime.log.AvalonLogChute is not available (java.lang.NoClassDefFoundError: org/apache/log/format/Formatter).  Falling back to next log system...
2018-07-23 01:29:52,170 - Trying to use logger class org.apache.velocity.runtime.log.Log4JLogChute
2018-07-23 01:29:52,170 - Using logger class org.apache.velocity.runtime.log.Log4JLogChute
2018-07-23 01:29:52,174 - ResourceLoader instantiated: org.apache.velocity.runtime.resource.loader.FileResourceLoader
2018-07-23 01:29:52,174 - Do unicode file recognition:  false
2018-07-23 01:29:52,175 - FileResourceLoader : adding path '.'
2018-07-23 01:29:52,181 - ResourceCache: initialized (class org.apache.velocity.runtime.resource.ResourceCacheImpl) with class java.util.Collections$SynchronizedMap cache map.
2018-07-23 01:29:52,182 - Loaded System Directive: org.apache.velocity.runtime.directive.Define
2018-07-23 01:29:52,182 - Loaded System Directive: org.apache.velocity.runtime.directive.Break
2018-07-23 01:29:52,183 - Loaded System Directive: org.apache.velocity.runtime.directive.Evaluate
2018-07-23 01:29:52,183 - Loaded System Directive: org.apache.velocity.runtime.directive.Literal
2018-07-23 01:29:52,183 - Loaded System Directive: org.apache.velocity.runtime.directive.Macro
2018-07-23 01:29:52,184 - Loaded System Directive: org.apache.velocity.runtime.directive.Parse
2018-07-23 01:29:52,184 - Loaded System Directive: org.apache.velocity.runtime.directive.Include
2018-07-23 01:29:52,185 - Loaded System Directive: org.apache.velocity.runtime.directive.Foreach
2018-07-23 01:29:52,201 - Created '20' parsers.
2018-07-23 01:29:52,203 - Velocimacro : "velocimacro.library" is not set.  Trying default library: VM_global_library.vm
2018-07-23 01:29:52,204 - Velocimacro : Default library not found.
2018-07-23 01:29:52,204 - Velocimacro : allowInline = true : VMs can be defined inline in templates
2018-07-23 01:29:52,204 - Velocimacro : allowInlineToOverride = false : VMs defined inline may NOT replace previous VM definitions
2018-07-23 01:29:52,204 - Velocimacro : allowInlineLocal = false : VMs defined inline will be global in scope if allowed.
2018-07-23 01:29:52,204 - Velocimacro : autoload off : VM system will not automatically reload global library macros
2018-07-23 01:32:16,745 - Log4JLogChute initialized using file 'velocity.log'
2018-07-23 01:32:16,746 - Starting Apache Velocity v1.6.2 (compiled: 2009-02-19 16:29:46)
2018-07-23 01:32:16,746 - Default Properties File: org/apache/velocity/runtime/defaults/velocity.properties
2018-07-23 01:32:16,746 - Trying to use logger class org.apache.velocity.runtime.log.AvalonLogChute
2018-07-23 01:32:16,746 - Target log system for org.apache.velocity.runtime.log.AvalonLogChute is not available (java.lang.NoClassDefFoundError: org/apache/log/format/Formatter).  Falling back to next log system...
2018-07-23 01:32:16,746 - Trying to use logger class org.apache.velocity.runtime.log.Log4JLogChute
2018-07-23 01:32:16,746 - Using logger class org.apache.velocity.runtime.log.Log4JLogChute
2018-07-23 01:32:16,749 - ResourceLoader instantiated: org.apache.velocity.runtime.resource.loader.FileResourceLoader
2018-07-23 01:32:16,750 - Do unicode file recognition:  false
2018-07-23 01:32:16,750 - FileResourceLoader : adding path '.'
2018-07-23 01:32:16,756 - ResourceCache: initialized (class org.apache.velocity.runtime.resource.ResourceCacheImpl) with class java.util.Collections$SynchronizedMap cache map.
2018-07-23 01:32:16,757 - Loaded System Directive: org.apache.velocity.runtime.directive.Define
2018-07-23 01:32:16,757 - Loaded System Directive: org.apache.velocity.runtime.directive.Break
2018-07-23 01:32:16,758 - Loaded System Directive: org.apache.velocity.runtime.directive.Evaluate
2018-07-23 01:32:16,758 - Loaded System Directive: org.apache.velocity.runtime.directive.Literal
2018-07-23 01:32:16,759 - Loaded System Directive: org.apache.velocity.runtime.directive.Macro
2018-07-23 01:32:16,759 - Loaded System Directive: org.apache.velocity.runtime.directive.Parse
2018-07-23 01:32:16,760 - Loaded System Directive: org.apache.velocity.runtime.directive.Include
2018-07-23 01:32:16,760 - Loaded System Directive: org.apache.velocity.runtime.directive.Foreach
2018-07-23 01:32:16,776 - Created '20' parsers.
2018-07-23 01:32:16,778 - Velocimacro : "velocimacro.library" is not set.  Trying default library: VM_global_library.vm
2018-07-23 01:32:16,779 - Velocimacro : Default library not found.
2018-07-23 01:32:16,779 - Velocimacro : allowInline = true : VMs can be defined inline in templates
2018-07-23 01:32:16,779 - Velocimacro : allowInlineToOverride = false : VMs defined inline may NOT replace previous VM definitions
2018-07-23 01:32:16,779 - Velocimacro : allowInlineLocal = false : VMs defined inline will be global in scope if allowed.
2018-07-23 01:32:16,779 - Velocimacro : autoload off : VM system will not automatically reload global library macros
2018-07-23 01:32:16,829 - Null reference [template 'SADI', line 55, column 14] : $description.getInputClassURI() cannot be resolved.
2018-07-23 01:32:16,829 - Null reference [template 'SADI', line 56, column 15] : $description.getOutputClassURI() cannot be resolved.
2018-07-23 01:48:53,348 - Log4JLogChute initialized using file 'velocity.log'
2018-07-23 01:48:53,367 - Starting Apache Velocity v1.6.2 (compiled: 2009-02-19 16:29:46)
2018-07-23 01:48:53,367 - Default Properties File: org/apache/velocity/runtime/defaults/velocity.properties
2018-07-23 01:48:53,367 - Trying to use logger class org.apache.velocity.runtime.log.AvalonLogChute
2018-07-23 01:48:53,367 - Target log system for org.apache.velocity.runtime.log.AvalonLogChute is not available (java.lang.NoClassDefFoundError: org/apache/log/format/Formatter).  Falling back to next log system...
2018-07-23 01:48:53,367 - Trying to use logger class org.apache.velocity.runtime.log.Log4JLogChute
2018-07-23 01:48:53,367 - Using logger class org.apache.velocity.runtime.log.Log4JLogChute
2018-07-23 01:48:53,371 - ResourceLoader instantiated: org.apache.velocity.runtime.resource.loader.FileResourceLoader
2018-07-23 01:48:53,371 - Do unicode file recognition:  false
2018-07-23 01:48:53,371 - FileResourceLoader : adding path '.'
2018-07-23 01:48:53,676 - ResourceCache: initialized (class org.apache.velocity.runtime.resource.ResourceCacheImpl) with class java.util.Collections$SynchronizedMap cache map.
2018-07-23 01:48:53,677 - Loaded System Directive: org.apache.velocity.runtime.directive.Define
2018-07-23 01:48:53,677 - Loaded System Directive: org.apache.velocity.runtime.directive.Break
2018-07-23 01:48:53,677 - Loaded System Directive: org.apache.velocity.runtime.directive.Evaluate
2018-07-23 01:48:53,677 - Loaded System Directive: org.apache.velocity.runtime.directive.Literal
2018-07-23 01:48:53,678 - Loaded System Directive: org.apache.velocity.runtime.directive.Macro
2018-07-23 01:48:53,678 - Loaded System Directive: org.apache.velocity.runtime.directive.Parse
2018-07-23 01:48:53,679 - Loaded System Directive: org.apache.velocity.runtime.directive.Include
2018-07-23 01:48:53,679 - Loaded System Directive: org.apache.velocity.runtime.directive.Foreach
2018-07-23 01:48:53,717 - Created '20' parsers.
2018-07-23 01:48:53,719 - Velocimacro : "velocimacro.library" is not set.  Trying default library: VM_global_library.vm
2018-07-23 01:48:53,719 - Velocimacro : Default library not found.
2018-07-23 01:48:53,719 - Velocimacro : allowInline = true : VMs can be defined inline in templates
2018-07-23 01:48:53,719 - Velocimacro : allowInlineToOverride = false : VMs defined inline may NOT replace previous VM definitions
2018-07-23 01:48:53,719 - Velocimacro : allowInlineLocal = false : VMs defined inline will be global in scope if allowed.
2018-07-23 01:48:53,719 - Velocimacro : autoload off : VM system will not automatically reload global library macros
2018-07-23 01:48:54,121 - Null reference [template 'SADI', line 55, column 14] : $description.getInputClassURI() cannot be resolved.
2018-07-23 01:48:54,121 - Null reference [template 'SADI', line 56, column 15] : $description.getOutputClassURI() cannot be resolved.
2018-07-23 01:50:15,364 - Log4JLogChute initialized using file 'velocity.log'
2018-07-23 01:50:15,364 - Starting Apache Velocity v1.6.2 (compiled: 2009-02-19 16:29:46)
2018-07-23 01:50:15,364 - Default Properties File: org/apache/velocity/runtime/defaults/velocity.properties
2018-07-23 01:50:15,364 - Trying to use logger class org.apache.velocity.runtime.log.AvalonLogChute
2018-07-23 01:50:15,364 - Target log system for org.apache.velocity.runtime.log.AvalonLogChute is not available (java.lang.NoClassDefFoundError: org/apache/log/format/Formatter).  Falling back to next log system...
2018-07-23 01:50:15,364 - Trying to use logger class org.apache.velocity.runtime.log.Log4JLogChute
2018-07-23 01:50:15,364 - Using logger class org.apache.velocity.runtime.log.Log4JLogChute
2018-07-23 01:50:15,368 - ResourceLoader instantiated: org.apache.velocity.runtime.resource.loader.FileResourceLoader
2018-07-23 01:50:15,369 - Do unicode file recognition:  false
2018-07-23 01:50:15,369 - FileResourceLoader : adding path '.'
2018-07-23 01:50:15,379 - ResourceCache: initialized (class org.apache.velocity.runtime.resource.ResourceCacheImpl) with class java.util.Collections$SynchronizedMap cache map.
2018-07-23 01:50:15,380 - Loaded System Directive: org.apache.velocity.runtime.directive.Define
2018-07-23 01:50:15,381 - Loaded System Directive: org.apache.velocity.runtime.directive.Break
2018-07-23 01:50:15,381 - Loaded System Directive: org.apache.velocity.runtime.directive.Evaluate
2018-07-23 01:50:15,381 - Loaded System Directive: org.apache.velocity.runtime.directive.Literal
2018-07-23 01:50:15,382 - Loaded System Directive: org.apache.velocity.runtime.directive.Macro
2018-07-23 01:50:15,382 - Loaded System Directive: org.apache.velocity.runtime.directive.Parse
2018-07-23 01:50:15,383 - Loaded System Directive: org.apache.velocity.runtime.directive.Include
2018-07-23 01:50:15,383 - Loaded System Directive: org.apache.velocity.runtime.directive.Foreach
2018-07-23 01:50:15,403 - Created '20' parsers.
2018-07-23 01:50:15,405 - Velocimacro : "velocimacro.library" is not set.  Trying default library: VM_global_library.vm
2018-07-23 01:50:15,406 - Velocimacro : Default library not found.
2018-07-23 01:50:15,406 - Velocimacro : allowInline = true : VMs can be defined inline in templates
2018-07-23 01:50:15,406 - Velocimacro : allowInlineToOverride = false : VMs defined inline may NOT replace previous VM definitions
2018-07-23 01:50:15,406 - Velocimacro : allowInlineLocal = false : VMs defined inline will be global in scope if allowed.
2018-07-23 01:50:15,406 - Velocimacro : autoload off : VM system will not automatically reload global library macros
2018-07-23 01:50:15,501 - Null reference [template 'SADI', line 55, column 14] : $description.getInputClassURI() cannot be resolved.
2018-07-23 01:50:15,502 - Null reference [template 'SADI', line 56, column 15] : $description.getOutputClassURI() cannot be resolved.
2018-07-23 01:52:40,675 - Log4JLogChute initialized using file 'velocity.log'
2018-07-23 01:52:40,676 - Starting Apache Velocity v1.6.2 (compiled: 2009-02-19 16:29:46)
2018-07-23 01:52:40,676 - Default Properties File: org/apache/velocity/runtime/defaults/velocity.properties
2018-07-23 01:52:40,676 - Trying to use logger class org.apache.velocity.runtime.log.AvalonLogChute
2018-07-23 01:52:40,676 - Target log system for org.apache.velocity.runtime.log.AvalonLogChute is not available (java.lang.NoClassDefFoundError: org/apache/log/format/Formatter).  Falling back to next log system...
2018-07-23 01:52:40,676 - Trying to use logger class org.apache.velocity.runtime.log.Log4JLogChute
2018-07-23 01:52:40,676 - Using logger class org.apache.velocity.runtime.log.Log4JLogChute
2018-07-23 01:52:40,679 - ResourceLoader instantiated: org.apache.velocity.runtime.resource.loader.FileResourceLoader
2018-07-23 01:52:40,679 - Do unicode file recognition:  false
2018-07-23 01:52:40,679 - FileResourceLoader : adding path '.'
2018-07-23 01:52:40,685 - ResourceCache: initialized (class org.apache.velocity.runtime.resource.ResourceCacheImpl) with class java.util.Collections$SynchronizedMap cache map.
2018-07-23 01:52:40,686 - Loaded System Directive: org.apache.velocity.runtime.directive.Define
2018-07-23 01:52:40,686 - Loaded System Directive: org.apache.velocity.runtime.directive.Break
2018-07-23 01:52:40,687 - Loaded System Directive: org.apache.velocity.runtime.directive.Evaluate
2018-07-23 01:52:40,687 - Loaded System Directive: org.apache.velocity.runtime.directive.Literal
2018-07-23 01:52:40,687 - Loaded System Directive: org.apache.velocity.runtime.directive.Macro
2018-07-23 01:52:40,688 - Loaded System Directive: org.apache.velocity.runtime.directive.Parse
2018-07-23 01:52:40,689 - Loaded System Directive: org.apache.velocity.runtime.directive.Include
2018-07-23 01:52:40,689 - Loaded System Directive: org.apache.velocity.runtime.directive.Foreach
2018-07-23 01:52:40,705 - Created '20' parsers.
2018-07-23 01:52:40,708 - Velocimacro : "velocimacro.library" is not set.  Trying default library: VM_global_library.vm
2018-07-23 01:52:40,708 - Velocimacro : Default library not found.
2018-07-23 01:52:40,708 - Velocimacro : allowInline = true : VMs can be defined inline in templates
2018-07-23 01:52:40,708 - Velocimacro : allowInlineToOverride = false : VMs defined inline may NOT replace previous VM definitions
2018-07-23 01:52:40,708 - Velocimacro : allowInlineLocal = false : VMs defined inline will be global in scope if allowed.
2018-07-23 01:52:40,708 - Velocimacro : autoload off : VM system will not automatically reload global library macros
2018-07-23 01:52:40,748 - Null reference [template 'SADI', line 55, column 14] : $description.getInputClassURI() cannot be resolved.
2018-07-23 01:52:40,748 - Null reference [template 'SADI', line 56, column 15] : $description.getOutputClassURI() cannot be resolved.
2018-07-23 01:55:41,900 - Log4JLogChute initialized using file 'velocity.log'
2018-07-23 01:55:41,900 - Starting Apache Velocity v1.6.2 (compiled: 2009-02-19 16:29:46)
2018-07-23 01:55:41,900 - Default Properties File: org/apache/velocity/runtime/defaults/velocity.properties
2018-07-23 01:55:41,900 - Trying to use logger class org.apache.velocity.runtime.log.AvalonLogChute
2018-07-23 01:55:41,900 - Target log system for org.apache.velocity.runtime.log.AvalonLogChute is not available (java.lang.NoClassDefFoundError: org/apache/log/format/Formatter).  Falling back to next log system...
2018-07-23 01:55:41,900 - Trying to use logger class org.apache.velocity.runtime.log.Log4JLogChute
2018-07-23 01:55:41,900 - Using logger class org.apache.velocity.runtime.log.Log4JLogChute
2018-07-23 01:55:41,904 - ResourceLoader instantiated: org.apache.velocity.runtime.resource.loader.FileResourceLoader
2018-07-23 01:55:41,905 - Do unicode file recognition:  false
2018-07-23 01:55:41,905 - FileResourceLoader : adding path '.'
2018-07-23 01:55:41,910 - ResourceCache: initialized (class org.apache.velocity.runtime.resource.ResourceCacheImpl) with class java.util.Collections$SynchronizedMap cache map.
2018-07-23 01:55:41,911 - Loaded System Directive: org.apache.velocity.runtime.directive.Define
2018-07-23 01:55:41,911 - Loaded System Directive: org.apache.velocity.runtime.directive.Break
2018-07-23 01:55:41,912 - Loaded System Directive: org.apache.velocity.runtime.directive.Evaluate
2018-07-23 01:55:41,912 - Loaded System Directive: org.apache.velocity.runtime.directive.Literal
2018-07-23 01:55:41,912 - Loaded System Directive: org.apache.velocity.runtime.directive.Macro
2018-07-23 01:55:41,913 - Loaded System Directive: org.apache.velocity.runtime.directive.Parse
2018-07-23 01:55:41,914 - Loaded System Directive: org.apache.velocity.runtime.directive.Include
2018-07-23 01:55:41,914 - Loaded System Directive: org.apache.velocity.runtime.directive.Foreach
2018-07-23 01:55:41,931 - Created '20' parsers.
2018-07-23 01:55:41,934 - Velocimacro : "velocimacro.library" is not set.  Trying default library: VM_global_library.vm
2018-07-23 01:55:41,934 - Velocimacro : Default library not found.
2018-07-23 01:55:41,934 - Velocimacro : allowInline = true : VMs can be defined inline in templates
2018-07-23 01:55:41,934 - Velocimacro : allowInlineToOverride = false : VMs defined inline may NOT replace previous VM definitions
2018-07-23 01:55:41,934 - Velocimacro : allowInlineLocal = false : VMs defined inline will be global in scope if allowed.
2018-07-23 01:55:41,934 - Velocimacro : autoload off : VM system will not automatically reload global library macros
2018-07-23 02:09:42,676 - Log4JLogChute initialized using file 'velocity.log'
2018-07-23 02:09:42,676 - Starting Apache Velocity v1.6.2 (compiled: 2009-02-19 16:29:46)
2018-07-23 02:09:42,676 - Default Properties File: org/apache/velocity/runtime/defaults/velocity.properties
2018-07-23 02:09:42,676 - Trying to use logger class org.apache.velocity.runtime.log.AvalonLogChute
2018-07-23 02:09:42,677 - Target log system for org.apache.velocity.runtime.log.AvalonLogChute is not available (java.lang.NoClassDefFoundError: org/apache/log/format/Formatter).  Falling back to next log system...
2018-07-23 02:09:42,677 - Trying to use logger class org.apache.velocity.runtime.log.Log4JLogChute
2018-07-23 02:09:42,677 - Using logger class org.apache.velocity.runtime.log.Log4JLogChute
2018-07-23 02:09:42,679 - ResourceLoader instantiated: org.apache.velocity.runtime.resource.loader.FileResourceLoader
2018-07-23 02:09:42,680 - Do unicode file recognition:  false
2018-07-23 02:09:42,680 - FileResourceLoader : adding path '.'
2018-07-23 02:09:42,686 - ResourceCache: initialized (class org.apache.velocity.runtime.resource.ResourceCacheImpl) with class java.util.Collections$SynchronizedMap cache map.
2018-07-23 02:09:42,687 - Loaded System Directive: org.apache.velocity.runtime.directive.Define
2018-07-23 02:09:42,687 - Loaded System Directive: org.apache.velocity.runtime.directive.Break
2018-07-23 02:09:42,688 - Loaded System Directive: org.apache.velocity.runtime.directive.Evaluate
2018-07-23 02:09:42,688 - Loaded System Directive: org.apache.velocity.runtime.directive.Literal
2018-07-23 02:09:42,688 - Loaded System Directive: org.apache.velocity.runtime.directive.Macro
2018-07-23 02:09:42,689 - Loaded System Directive: org.apache.velocity.runtime.directive.Parse
2018-07-23 02:09:42,689 - Loaded System Directive: org.apache.velocity.runtime.directive.Include
2018-07-23 02:09:42,690 - Loaded System Directive: org.apache.velocity.runtime.directive.Foreach
2018-07-23 02:09:42,706 - Created '20' parsers.
2018-07-23 02:09:42,709 - Velocimacro : "velocimacro.library" is not set.  Trying default library: VM_global_library.vm
2018-07-23 02:09:42,709 - Velocimacro : Default library not found.
2018-07-23 02:09:42,709 - Velocimacro : allowInline = true : VMs can be defined inline in templates
2018-07-23 02:09:42,709 - Velocimacro : allowInlineToOverride = false : VMs defined inline may NOT replace previous VM definitions
2018-07-23 02:09:42,709 - Velocimacro : allowInlineLocal = false : VMs defined inline will be global in scope if allowed.
2018-07-23 02:09:42,709 - Velocimacro : autoload off : VM system will not automatically reload global library macros
